{
  "dependencies": {
    "accepts": {
      "version": "1.3.5",
      "from": "accepts@>=1.3.4 <1.4.0",
      "resolved": "https://registry.npmjs.org/accepts/-/accepts-1.3.5.tgz"
    },
    "ansi-styles": {
      "version": "3.2.1",
      "from": "ansi-styles@>=3.2.1 <4.0.0",
      "resolved": "https://registry.npmjs.org/ansi-styles/-/ansi-styles-3.2.1.tgz"
    },
    "append-field": {
      "version": "0.1.0",
      "from": "append-field@>=0.1.0 <0.2.0",
      "resolved": "https://registry.npmjs.org/append-field/-/append-field-0.1.0.tgz"
    },
    "arr-diff": {
      "version": "4.0.0",
      "from": "arr-diff@>=4.0.0 <5.0.0",
      "resolved": "https://registry.npmjs.org/arr-diff/-/arr-diff-4.0.0.tgz"
    },
    "arr-flatten": {
      "version": "1.1.0",
      "from": "arr-flatten@>=1.1.0 <2.0.0",
      "resolved": "https://registry.npmjs.org/arr-flatten/-/arr-flatten-1.1.0.tgz"
    },
    "arr-union": {
      "version": "3.1.0",
      "from": "arr-union@>=3.1.0 <4.0.0",
      "resolved": "https://registry.npmjs.org/arr-union/-/arr-union-3.1.0.tgz"
    },
    "array-each": {
      "version": "1.0.1",
      "from": "array-each@>=1.0.1 <2.0.0",
      "resolved": "https://registry.npmjs.org/array-each/-/array-each-1.0.1.tgz"
    },
    "array-flatten": {
      "version": "1.1.1",
      "from": "array-flatten@1.1.1",
      "resolved": "https://registry.npmjs.org/array-flatten/-/array-flatten-1.1.1.tgz"
    },
    "array-slice": {
      "version": "1.1.0",
      "from": "array-slice@>=1.0.0 <2.0.0",
      "resolved": "https://registry.npmjs.org/array-slice/-/array-slice-1.1.0.tgz"
    },
    "array-unique": {
      "version": "0.3.2",
      "from": "array-unique@>=0.3.2 <0.4.0",
      "resolved": "https://registry.npmjs.org/array-unique/-/array-unique-0.3.2.tgz"
    },
    "assign-symbols": {
      "version": "1.0.0",
      "from": "assign-symbols@>=1.0.0 <2.0.0",
      "resolved": "https://registry.npmjs.org/assign-symbols/-/assign-symbols-1.0.0.tgz"
    },
    "atob": {
      "version": "2.1.1",
      "from": "atob@>=2.1.1 <3.0.0",
      "resolved": "https://registry.npmjs.org/atob/-/atob-2.1.1.tgz"
    },
    "aws-sdk": {
      "version": "2.320.0",
      "from": "aws-sdk@latest",
      "resolved": "https://registry.npmjs.org/aws-sdk/-/aws-sdk-2.320.0.tgz",
      "dependencies": {
        "uuid": {
          "version": "3.1.0",
          "from": "uuid@3.1.0",
          "resolved": "https://registry.npmjs.org/uuid/-/uuid-3.1.0.tgz"
        }
      }
    },
    "babel-runtime": {
      "version": "6.26.0",
      "from": "babel-runtime@>=6.26.0 <7.0.0",
      "resolved": "https://registry.npmjs.org/babel-runtime/-/babel-runtime-6.26.0.tgz"
    },
    "base": {
      "version": "0.11.2",
      "from": "base@>=0.11.1 <0.12.0",
      "resolved": "https://registry.npmjs.org/base/-/base-0.11.2.tgz",
      "dependencies": {
        "define-property": {
          "version": "1.0.0",
          "from": "define-property@>=1.0.0 <2.0.0",
          "resolved": "https://registry.npmjs.org/define-property/-/define-property-1.0.0.tgz"
        },
        "is-accessor-descriptor": {
          "version": "1.0.0",
          "from": "is-accessor-descriptor@>=1.0.0 <2.0.0",
          "resolved": "https://registry.npmjs.org/is-accessor-descriptor/-/is-accessor-descriptor-1.0.0.tgz"
        },
        "is-data-descriptor": {
          "version": "1.0.0",
          "from": "is-data-descriptor@>=1.0.0 <2.0.0",
          "resolved": "https://registry.npmjs.org/is-data-descriptor/-/is-data-descriptor-1.0.0.tgz"
        },
        "is-descriptor": {
          "version": "1.0.2",
          "from": "is-descriptor@>=1.0.0 <2.0.0",
          "resolved": "https://registry.npmjs.org/is-descriptor/-/is-descriptor-1.0.2.tgz"
        }
      }
    },
    "base64-js": {
      "version": "1.3.0",
      "from": "base64-js@>=1.0.2 <2.0.0",
      "resolved": "https://registry.npmjs.org/base64-js/-/base64-js-1.3.0.tgz"
    },
    "bignumber.js": {
      "version": "4.1.0",
      "from": "bignumber.js@4.1.0",
      "resolved": "https://registry.npmjs.org/bignumber.js/-/bignumber.js-4.1.0.tgz"
    },
    "bluebird": {
      "version": "3.5.1",
      "from": "bluebird@>=3.5.1 <4.0.0",
      "resolved": "https://registry.npmjs.org/bluebird/-/bluebird-3.5.1.tgz"
    },
    "body-parser": {
      "version": "1.18.3",
      "from": "body-parser@>=1.18.2 <2.0.0",
      "resolved": "https://registry.npmjs.org/body-parser/-/body-parser-1.18.3.tgz"
    },
    "braces": {
      "version": "2.3.2",
      "from": "braces@>=2.3.1 <3.0.0",
      "resolved": "https://registry.npmjs.org/braces/-/braces-2.3.2.tgz",
      "dependencies": {
        "extend-shallow": {
          "version": "2.0.1",
          "from": "extend-shallow@>=2.0.1 <3.0.0",
          "resolved": "https://registry.npmjs.org/extend-shallow/-/extend-shallow-2.0.1.tgz"
        }
      }
    },
    "buffer": {
      "version": "4.9.1",
      "from": "buffer@4.9.1",
      "resolved": "https://registry.npmjs.org/buffer/-/buffer-4.9.1.tgz"
    },
    "buffer-from": {
      "version": "1.1.1",
      "from": "buffer-from@>=1.0.0 <2.0.0",
      "resolved": "https://registry.npmjs.org/buffer-from/-/buffer-from-1.1.1.tgz"
    },
    "busboy": {
      "version": "0.2.14",
      "from": "busboy@>=0.2.14 <0.3.0",
      "resolved": "https://registry.npmjs.org/busboy/-/busboy-0.2.14.tgz",
      "dependencies": {
        "isarray": {
          "version": "0.0.1",
          "from": "isarray@0.0.1"
        },
        "readable-stream": {
          "version": "1.1.14",
          "from": "readable-stream@>=1.1.0 <1.2.0",
          "resolved": "https://registry.npmjs.org/readable-stream/-/readable-stream-1.1.14.tgz"
        },
        "string_decoder": {
          "version": "0.10.31",
          "from": "string_decoder@>=0.10.0 <0.11.0"
        }
      }
    },
    "bytes": {
      "version": "3.0.0",
      "from": "bytes@3.0.0",
      "resolved": "https://registry.npmjs.org/bytes/-/bytes-3.0.0.tgz"
    },
    "cache-base": {
      "version": "1.0.1",
      "from": "cache-base@>=1.0.1 <2.0.0",
      "resolved": "https://registry.npmjs.org/cache-base/-/cache-base-1.0.1.tgz"
    },
    "chalk": {
      "version": "2.3.2",
      "from": "chalk@2.3.2",
      "resolved": "https://registry.npmjs.org/chalk/-/chalk-2.3.2.tgz"
    },
    "charenc": {
      "version": "0.0.2",
      "from": "charenc@>=0.0.1 <0.1.0",
      "resolved": "https://registry.npmjs.org/charenc/-/charenc-0.0.2.tgz"
    },
    "class-utils": {
      "version": "0.3.6",
      "from": "class-utils@>=0.3.5 <0.4.0",
      "resolved": "https://registry.npmjs.org/class-utils/-/class-utils-0.3.6.tgz",
      "dependencies": {
        "define-property": {
          "version": "0.2.5",
          "from": "define-property@>=0.2.5 <0.3.0",
          "resolved": "https://registry.npmjs.org/define-property/-/define-property-0.2.5.tgz"
        }
      }
    },
    "collection-visit": {
      "version": "1.0.0",
      "from": "collection-visit@>=1.0.0 <2.0.0",
      "resolved": "https://registry.npmjs.org/collection-visit/-/collection-visit-1.0.0.tgz"
    },
    "color-convert": {
      "version": "1.9.2",
      "from": "color-convert@>=1.9.0 <2.0.0",
      "resolved": "https://registry.npmjs.org/color-convert/-/color-convert-1.9.2.tgz"
    },
    "color-name": {
      "version": "1.1.1",
      "from": "color-name@1.1.1",
      "resolved": "https://registry.npmjs.org/color-name/-/color-name-1.1.1.tgz"
    },
    "commander": {
      "version": "2.16.0",
      "from": "commander@>=2.16.0 <3.0.0",
      "resolved": "https://registry.npmjs.org/commander/-/commander-2.16.0.tgz"
    },
    "component-emitter": {
      "version": "1.2.1",
      "from": "component-emitter@>=1.2.1 <2.0.0",
      "resolved": "https://registry.npmjs.org/component-emitter/-/component-emitter-1.2.1.tgz"
    },
    "concat-stream": {
      "version": "1.6.2",
      "from": "concat-stream@>=1.5.2 <2.0.0",
      "resolved": "https://registry.npmjs.org/concat-stream/-/concat-stream-1.6.2.tgz"
    },
    "content-disposition": {
      "version": "0.5.2",
      "from": "content-disposition@0.5.2",
      "resolved": "https://registry.npmjs.org/content-disposition/-/content-disposition-0.5.2.tgz"
    },
    "content-type": {
      "version": "1.0.4",
      "from": "content-type@>=1.0.4 <1.1.0",
      "resolved": "https://registry.npmjs.org/content-type/-/content-type-1.0.4.tgz"
    },
    "cookie": {
      "version": "0.3.1",
      "from": "cookie@0.3.1",
      "resolved": "https://registry.npmjs.org/cookie/-/cookie-0.3.1.tgz"
    },
    "cookie-parser": {
      "version": "1.4.3",
      "from": "cookie-parser@latest",
      "resolved": "https://registry.npmjs.org/cookie-parser/-/cookie-parser-1.4.3.tgz"
    },
    "cookie-signature": {
      "version": "1.0.6",
      "from": "cookie-signature@1.0.6",
      "resolved": "https://registry.npmjs.org/cookie-signature/-/cookie-signature-1.0.6.tgz"
    },
    "copy-descriptor": {
      "version": "0.1.1",
      "from": "copy-descriptor@>=0.1.0 <0.2.0",
      "resolved": "https://registry.npmjs.org/copy-descriptor/-/copy-descriptor-0.1.1.tgz"
    },
    "core-js": {
      "version": "2.5.7",
      "from": "core-js@>=2.4.0 <3.0.0",
      "resolved": "https://registry.npmjs.org/core-js/-/core-js-2.5.7.tgz"
    },
    "core-util-is": {
      "version": "1.0.2",
      "from": "core-util-is@>=1.0.0 <1.1.0",
      "resolved": "https://registry.npmjs.org/core-util-is/-/core-util-is-1.0.2.tgz"
    },
    "cors": {
      "version": "2.8.4",
      "from": "cors@latest",
      "resolved": "https://registry.npmjs.org/cors/-/cors-2.8.4.tgz"
    },
    "crypt": {
      "version": "0.0.2",
      "from": "crypt@>=0.0.1 <0.1.0",
      "resolved": "https://registry.npmjs.org/crypt/-/crypt-0.0.2.tgz"
    },
    "debug": {
      "version": "2.6.9",
      "from": "debug@2.6.9",
      "resolved": "https://registry.npmjs.org/debug/-/debug-2.6.9.tgz"
    },
    "decode-uri-component": {
      "version": "0.2.0",
      "from": "decode-uri-component@>=0.2.0 <0.3.0",
      "resolved": "https://registry.npmjs.org/decode-uri-component/-/decode-uri-component-0.2.0.tgz"
    },
    "define-property": {
      "version": "2.0.2",
      "from": "define-property@>=2.0.2 <3.0.0",
      "resolved": "https://registry.npmjs.org/define-property/-/define-property-2.0.2.tgz",
      "dependencies": {
        "is-accessor-descriptor": {
          "version": "1.0.0",
          "from": "is-accessor-descriptor@>=1.0.0 <2.0.0",
          "resolved": "https://registry.npmjs.org/is-accessor-descriptor/-/is-accessor-descriptor-1.0.0.tgz"
        },
        "is-data-descriptor": {
          "version": "1.0.0",
          "from": "is-data-descriptor@>=1.0.0 <2.0.0",
          "resolved": "https://registry.npmjs.org/is-data-descriptor/-/is-data-descriptor-1.0.0.tgz"
        },
        "is-descriptor": {
          "version": "1.0.2",
          "from": "is-descriptor@>=1.0.2 <2.0.0",
          "resolved": "https://registry.npmjs.org/is-descriptor/-/is-descriptor-1.0.2.tgz"
        }
      }
    },
    "depd": {
      "version": "1.1.2",
      "from": "depd@>=1.1.2 <1.2.0",
      "resolved": "https://registry.npmjs.org/depd/-/depd-1.1.2.tgz"
    },
    "destroy": {
      "version": "1.0.4",
      "from": "destroy@>=1.0.4 <1.1.0",
      "resolved": "https://registry.npmjs.org/destroy/-/destroy-1.0.4.tgz"
    },
    "detect-file": {
      "version": "1.0.0",
      "from": "detect-file@>=1.0.0 <2.0.0",
      "resolved": "https://registry.npmjs.org/detect-file/-/detect-file-1.0.0.tgz"
    },
    "dicer": {
      "version": "0.2.5",
      "from": "dicer@0.2.5",
      "resolved": "https://registry.npmjs.org/dicer/-/dicer-0.2.5.tgz",
      "dependencies": {
        "isarray": {
          "version": "0.0.1",
          "from": "isarray@0.0.1",
          "resolved": "https://registry.npmjs.org/isarray/-/isarray-0.0.1.tgz"
        },
        "readable-stream": {
          "version": "1.1.14",
          "from": "readable-stream@>=1.1.0 <1.2.0"
        },
        "string_decoder": {
          "version": "0.10.31",
          "from": "string_decoder@>=0.10.0 <0.11.0",
          "resolved": "https://registry.npmjs.org/string_decoder/-/string_decoder-0.10.31.tgz"
        }
      }
    },
    "ee-first": {
      "version": "1.1.1",
      "from": "ee-first@1.1.1",
      "resolved": "https://registry.npmjs.org/ee-first/-/ee-first-1.1.1.tgz"
    },
    "encodeurl": {
      "version": "1.0.2",
      "from": "encodeurl@>=1.0.1 <1.1.0",
      "resolved": "https://registry.npmjs.org/encodeurl/-/encodeurl-1.0.2.tgz"
    },
    "escape-html": {
      "version": "1.0.3",
      "from": "escape-html@>=1.0.3 <1.1.0",
      "resolved": "https://registry.npmjs.org/escape-html/-/escape-html-1.0.3.tgz"
    },
    "escape-string-regexp": {
      "version": "1.0.5",
      "from": "escape-string-regexp@>=1.0.5 <2.0.0",
      "resolved": "https://registry.npmjs.org/escape-string-regexp/-/escape-string-regexp-1.0.5.tgz"
    },
    "etag": {
      "version": "1.8.1",
      "from": "etag@>=1.8.1 <1.9.0",
      "resolved": "https://registry.npmjs.org/etag/-/etag-1.8.1.tgz"
    },
    "events": {
      "version": "1.1.1",
      "from": "events@1.1.1",
      "resolved": "https://registry.npmjs.org/events/-/events-1.1.1.tgz"
    },
    "expand-brackets": {
      "version": "2.1.4",
      "from": "expand-brackets@>=2.1.4 <3.0.0",
      "resolved": "https://registry.npmjs.org/expand-brackets/-/expand-brackets-2.1.4.tgz",
      "dependencies": {
        "define-property": {
          "version": "0.2.5",
          "from": "define-property@>=0.2.5 <0.3.0",
          "resolved": "https://registry.npmjs.org/define-property/-/define-property-0.2.5.tgz"
        },
        "extend-shallow": {
          "version": "2.0.1",
          "from": "extend-shallow@>=2.0.1 <3.0.0",
          "resolved": "https://registry.npmjs.org/extend-shallow/-/extend-shallow-2.0.1.tgz"
        }
      }
    },
    "expand-tilde": {
      "version": "2.0.2",
      "from": "expand-tilde@>=2.0.0 <3.0.0",
      "resolved": "https://registry.npmjs.org/expand-tilde/-/expand-tilde-2.0.2.tgz"
    },
    "express": {
      "version": "4.16.2",
      "from": "express@4.16.2",
      "resolved": "https://registry.npmjs.org/express/-/express-4.16.2.tgz",
      "dependencies": {
        "body-parser": {
          "version": "1.18.2",
          "from": "body-parser@1.18.2",
          "resolved": "https://registry.npmjs.org/body-parser/-/body-parser-1.18.2.tgz"
        },
        "iconv-lite": {
          "version": "0.4.19",
          "from": "iconv-lite@0.4.19",
          "resolved": "https://registry.npmjs.org/iconv-lite/-/iconv-lite-0.4.19.tgz"
        },
        "qs": {
          "version": "6.5.1",
          "from": "qs@6.5.1",
          "resolved": "https://registry.npmjs.org/qs/-/qs-6.5.1.tgz"
        },
        "raw-body": {
          "version": "2.3.2",
          "from": "raw-body@2.3.2",
          "resolved": "https://registry.npmjs.org/raw-body/-/raw-body-2.3.2.tgz",
          "dependencies": {
            "depd": {
              "version": "1.1.1",
              "from": "depd@1.1.1",
              "resolved": "https://registry.npmjs.org/depd/-/depd-1.1.1.tgz"
            },
            "http-errors": {
              "version": "1.6.2",
              "from": "http-errors@1.6.2",
              "resolved": "https://registry.npmjs.org/http-errors/-/http-errors-1.6.2.tgz"
            },
            "setprototypeof": {
              "version": "1.0.3",
              "from": "setprototypeof@1.0.3",
              "resolved": "https://registry.npmjs.org/setprototypeof/-/setprototypeof-1.0.3.tgz"
            }
          }
        },
        "statuses": {
          "version": "1.3.1",
          "from": "statuses@>=1.3.1 <1.4.0",
          "resolved": "https://registry.npmjs.org/statuses/-/statuses-1.3.1.tgz"
        }
      }
    },
    "express-fileupload": {
      "version": "1.0.0-alpha.1",
      "from": "express-fileupload@latest",
      "resolved": "https://registry.npmjs.org/express-fileupload/-/express-fileupload-1.0.0-alpha.1.tgz"
    },
    "extend": {
      "version": "3.0.2",
      "from": "extend@>=3.0.0 <4.0.0",
      "resolved": "https://registry.npmjs.org/extend/-/extend-3.0.2.tgz"
    },
    "extend-shallow": {
      "version": "3.0.2",
      "from": "extend-shallow@>=3.0.2 <4.0.0",
      "resolved": "https://registry.npmjs.org/extend-shallow/-/extend-shallow-3.0.2.tgz",
      "dependencies": {
        "is-extendable": {
          "version": "1.0.1",
          "from": "is-extendable@>=1.0.1 <2.0.0",
          "resolved": "https://registry.npmjs.org/is-extendable/-/is-extendable-1.0.1.tgz"
        }
      }
    },
    "extglob": {
      "version": "2.0.4",
      "from": "extglob@>=2.0.4 <3.0.0",
      "resolved": "https://registry.npmjs.org/extglob/-/extglob-2.0.4.tgz",
      "dependencies": {
        "define-property": {
          "version": "1.0.0",
          "from": "define-property@>=1.0.0 <2.0.0",
          "resolved": "https://registry.npmjs.org/define-property/-/define-property-1.0.0.tgz"
        },
        "extend-shallow": {
          "version": "2.0.1",
          "from": "extend-shallow@>=2.0.1 <3.0.0",
          "resolved": "https://registry.npmjs.org/extend-shallow/-/extend-shallow-2.0.1.tgz"
        },
        "is-accessor-descriptor": {
          "version": "1.0.0",
          "from": "is-accessor-descriptor@>=1.0.0 <2.0.0",
          "resolved": "https://registry.npmjs.org/is-accessor-descriptor/-/is-accessor-descriptor-1.0.0.tgz"
        },
        "is-data-descriptor": {
          "version": "1.0.0",
          "from": "is-data-descriptor@>=1.0.0 <2.0.0",
          "resolved": "https://registry.npmjs.org/is-data-descriptor/-/is-data-descriptor-1.0.0.tgz"
        },
        "is-descriptor": {
          "version": "1.0.2",
          "from": "is-descriptor@>=1.0.0 <2.0.0",
          "resolved": "https://registry.npmjs.org/is-descriptor/-/is-descriptor-1.0.2.tgz"
        }
      }
    },
    "file-type": {
      "version": "3.9.0",
      "from": "file-type@>=3.3.0 <4.0.0",
      "resolved": "https://registry.npmjs.org/file-type/-/file-type-3.9.0.tgz"
    },
    "fill-range": {
      "version": "4.0.0",
      "from": "fill-range@>=4.0.0 <5.0.0",
      "resolved": "https://registry.npmjs.org/fill-range/-/fill-range-4.0.0.tgz",
      "dependencies": {
        "extend-shallow": {
          "version": "2.0.1",
          "from": "extend-shallow@>=2.0.1 <3.0.0",
          "resolved": "https://registry.npmjs.org/extend-shallow/-/extend-shallow-2.0.1.tgz"
        }
      }
    },
    "finalhandler": {
      "version": "1.1.0",
      "from": "finalhandler@1.1.0",
      "resolved": "https://registry.npmjs.org/finalhandler/-/finalhandler-1.1.0.tgz",
      "dependencies": {
        "statuses": {
          "version": "1.3.1",
          "from": "statuses@>=1.3.1 <1.4.0",
          "resolved": "https://registry.npmjs.org/statuses/-/statuses-1.3.1.tgz"
        }
      }
    },
    "findup-sync": {
      "version": "2.0.0",
      "from": "findup-sync@>=2.0.0 <3.0.0",
      "resolved": "https://registry.npmjs.org/findup-sync/-/findup-sync-2.0.0.tgz"
    },
    "fined": {
      "version": "1.1.0",
      "from": "fined@>=1.0.1 <2.0.0",
      "resolved": "https://registry.npmjs.org/fined/-/fined-1.1.0.tgz"
    },
    "flagged-respawn": {
      "version": "1.0.0",
      "from": "flagged-respawn@>=1.0.0 <2.0.0",
      "resolved": "https://registry.npmjs.org/flagged-respawn/-/flagged-respawn-1.0.0.tgz"
    },
    "for-in": {
      "version": "1.0.2",
      "from": "for-in@>=1.0.2 <2.0.0",
      "resolved": "https://registry.npmjs.org/for-in/-/for-in-1.0.2.tgz"
    },
    "for-own": {
      "version": "1.0.0",
      "from": "for-own@>=1.0.0 <2.0.0",
      "resolved": "https://registry.npmjs.org/for-own/-/for-own-1.0.0.tgz"
    },
    "forwarded": {
      "version": "0.1.2",
      "from": "forwarded@>=0.1.2 <0.2.0",
      "resolved": "https://registry.npmjs.org/forwarded/-/forwarded-0.1.2.tgz"
    },
    "fragment-cache": {
      "version": "0.2.1",
      "from": "fragment-cache@>=0.2.1 <0.3.0",
      "resolved": "https://registry.npmjs.org/fragment-cache/-/fragment-cache-0.2.1.tgz"
    },
    "fresh": {
      "version": "0.5.2",
      "from": "fresh@0.5.2",
      "resolved": "https://registry.npmjs.org/fresh/-/fresh-0.5.2.tgz"
    },
    "get-value": {
      "version": "2.0.6",
      "from": "get-value@>=2.0.6 <3.0.0",
      "resolved": "https://registry.npmjs.org/get-value/-/get-value-2.0.6.tgz"
    },
    "global-modules": {
      "version": "1.0.0",
      "from": "global-modules@>=1.0.0 <2.0.0",
      "resolved": "https://registry.npmjs.org/global-modules/-/global-modules-1.0.0.tgz"
    },
    "global-prefix": {
      "version": "1.0.2",
      "from": "global-prefix@>=1.0.1 <2.0.0",
      "resolved": "https://registry.npmjs.org/global-prefix/-/global-prefix-1.0.2.tgz"
    },
    "has-flag": {
      "version": "3.0.0",
      "from": "has-flag@>=3.0.0 <4.0.0",
      "resolved": "https://registry.npmjs.org/has-flag/-/has-flag-3.0.0.tgz"
    },
    "has-value": {
      "version": "1.0.0",
      "from": "has-value@>=1.0.0 <2.0.0",
      "resolved": "https://registry.npmjs.org/has-value/-/has-value-1.0.0.tgz"
    },
    "has-values": {
      "version": "1.0.0",
      "from": "has-values@>=1.0.0 <2.0.0",
      "resolved": "https://registry.npmjs.org/has-values/-/has-values-1.0.0.tgz",
      "dependencies": {
        "kind-of": {
          "version": "4.0.0",
          "from": "kind-of@>=4.0.0 <5.0.0",
          "resolved": "https://registry.npmjs.org/kind-of/-/kind-of-4.0.0.tgz"
        }
      }
    },
    "homedir-polyfill": {
      "version": "1.0.1",
      "from": "homedir-polyfill@>=1.0.1 <2.0.0",
      "resolved": "https://registry.npmjs.org/homedir-polyfill/-/homedir-polyfill-1.0.1.tgz"
    },
    "http-errors": {
      "version": "1.6.3",
      "from": "http-errors@>=1.6.3 <1.7.0",
      "resolved": "https://registry.npmjs.org/http-errors/-/http-errors-1.6.3.tgz"
    },
    "iconv-lite": {
      "version": "0.4.23",
      "from": "iconv-lite@0.4.23",
      "resolved": "https://registry.npmjs.org/iconv-lite/-/iconv-lite-0.4.23.tgz"
    },
    "ieee754": {
      "version": "1.1.8",
      "from": "ieee754@1.1.8",
      "resolved": "https://registry.npmjs.org/ieee754/-/ieee754-1.1.8.tgz"
    },
    "inherits": {
      "version": "2.0.3",
      "from": "inherits@2.0.3",
      "resolved": "https://registry.npmjs.org/inherits/-/inherits-2.0.3.tgz"
    },
    "ini": {
      "version": "1.3.5",
      "from": "ini@>=1.3.4 <2.0.0",
      "resolved": "https://registry.npmjs.org/ini/-/ini-1.3.5.tgz"
    },
    "interpret": {
      "version": "1.1.0",
      "from": "interpret@>=1.1.0 <2.0.0",
      "resolved": "https://registry.npmjs.org/interpret/-/interpret-1.1.0.tgz"
    },
    "ipaddr.js": {
      "version": "1.8.0",
      "from": "ipaddr.js@1.8.0",
      "resolved": "https://registry.npmjs.org/ipaddr.js/-/ipaddr.js-1.8.0.tgz"
    },
    "is-absolute": {
      "version": "1.0.0",
      "from": "is-absolute@>=1.0.0 <2.0.0",
      "resolved": "https://registry.npmjs.org/is-absolute/-/is-absolute-1.0.0.tgz"
    },
    "is-accessor-descriptor": {
      "version": "0.1.6",
      "from": "is-accessor-descriptor@>=0.1.6 <0.2.0",
      "resolved": "https://registry.npmjs.org/is-accessor-descriptor/-/is-accessor-descriptor-0.1.6.tgz",
      "dependencies": {
        "kind-of": {
          "version": "3.2.2",
          "from": "kind-of@>=3.0.2 <4.0.0",
          "resolved": "https://registry.npmjs.org/kind-of/-/kind-of-3.2.2.tgz"
        }
      }
    },
    "is-buffer": {
      "version": "1.1.6",
      "from": "is-buffer@>=1.1.5 <2.0.0",
      "resolved": "https://registry.npmjs.org/is-buffer/-/is-buffer-1.1.6.tgz"
    },
    "is-data-descriptor": {
      "version": "0.1.4",
      "from": "is-data-descriptor@>=0.1.4 <0.2.0",
      "resolved": "https://registry.npmjs.org/is-data-descriptor/-/is-data-descriptor-0.1.4.tgz",
      "dependencies": {
        "kind-of": {
          "version": "3.2.2",
          "from": "kind-of@>=3.0.2 <4.0.0",
          "resolved": "https://registry.npmjs.org/kind-of/-/kind-of-3.2.2.tgz"
        }
      }
    },
    "is-descriptor": {
      "version": "0.1.6",
      "from": "is-descriptor@>=0.1.0 <0.2.0",
      "resolved": "https://registry.npmjs.org/is-descriptor/-/is-descriptor-0.1.6.tgz",
      "dependencies": {
        "kind-of": {
          "version": "5.1.0",
          "from": "kind-of@>=5.0.0 <6.0.0",
          "resolved": "https://registry.npmjs.org/kind-of/-/kind-of-5.1.0.tgz"
        }
      }
    },
    "is-extendable": {
      "version": "0.1.1",
      "from": "is-extendable@>=0.1.0 <0.2.0",
      "resolved": "https://registry.npmjs.org/is-extendable/-/is-extendable-0.1.1.tgz"
    },
    "is-extglob": {
      "version": "2.1.1",
      "from": "is-extglob@>=2.1.0 <3.0.0",
      "resolved": "https://registry.npmjs.org/is-extglob/-/is-extglob-2.1.1.tgz"
    },
    "is-glob": {
      "version": "3.1.0",
      "from": "is-glob@>=3.1.0 <4.0.0",
      "resolved": "https://registry.npmjs.org/is-glob/-/is-glob-3.1.0.tgz"
    },
    "is-number": {
      "version": "3.0.0",
      "from": "is-number@>=3.0.0 <4.0.0",
      "resolved": "https://registry.npmjs.org/is-number/-/is-number-3.0.0.tgz",
      "dependencies": {
        "kind-of": {
          "version": "3.2.2",
          "from": "kind-of@>=3.0.2 <4.0.0",
          "resolved": "https://registry.npmjs.org/kind-of/-/kind-of-3.2.2.tgz"
        }
      }
    },
    "is-plain-object": {
      "version": "2.0.4",
      "from": "is-plain-object@>=2.0.4 <3.0.0",
      "resolved": "https://registry.npmjs.org/is-plain-object/-/is-plain-object-2.0.4.tgz"
    },
    "is-relative": {
      "version": "1.0.0",
      "from": "is-relative@>=1.0.0 <2.0.0",
      "resolved": "https://registry.npmjs.org/is-relative/-/is-relative-1.0.0.tgz"
    },
    "is-unc-path": {
      "version": "1.0.0",
      "from": "is-unc-path@>=1.0.0 <2.0.0",
      "resolved": "https://registry.npmjs.org/is-unc-path/-/is-unc-path-1.0.0.tgz"
    },
    "is-windows": {
      "version": "1.0.2",
      "from": "is-windows@>=1.0.2 <2.0.0",
      "resolved": "https://registry.npmjs.org/is-windows/-/is-windows-1.0.2.tgz"
    },
    "isarray": {
      "version": "1.0.0",
      "from": "isarray@1.0.0",
      "resolved": "https://registry.npmjs.org/isarray/-/isarray-1.0.0.tgz"
    },
    "isexe": {
      "version": "2.0.0",
      "from": "isexe@>=2.0.0 <3.0.0",
      "resolved": "https://registry.npmjs.org/isexe/-/isexe-2.0.0.tgz"
    },
    "isobject": {
      "version": "3.0.1",
      "from": "isobject@>=3.0.1 <4.0.0",
      "resolved": "https://registry.npmjs.org/isobject/-/isobject-3.0.1.tgz"
    },
    "jmespath": {
      "version": "0.15.0",
      "from": "jmespath@0.15.0",
      "resolved": "https://registry.npmjs.org/jmespath/-/jmespath-0.15.0.tgz"
    },
    "kind-of": {
      "version": "6.0.2",
      "from": "kind-of@>=6.0.2 <7.0.0",
      "resolved": "https://registry.npmjs.org/kind-of/-/kind-of-6.0.2.tgz"
    },
    "knex": {
      "version": "0.15.2",
      "from": "knex@latest",
      "resolved": "https://registry.npmjs.org/knex/-/knex-0.15.2.tgz",
      "dependencies": {
        "debug": {
          "version": "3.1.0",
          "from": "debug@3.1.0",
          "resolved": "https://registry.npmjs.org/debug/-/debug-3.1.0.tgz"
        }
      }
    },
    "liftoff": {
      "version": "2.5.0",
      "from": "liftoff@2.5.0",
      "resolved": "https://registry.npmjs.org/liftoff/-/liftoff-2.5.0.tgz"
    },
    "lodash": {
      "version": "4.17.10",
      "from": "lodash@>=4.17.10 <5.0.0",
      "resolved": "https://registry.npmjs.org/lodash/-/lodash-4.17.10.tgz"
    },
    "make-iterator": {
      "version": "1.0.1",
      "from": "make-iterator@>=1.0.0 <2.0.0",
      "resolved": "https://registry.npmjs.org/make-iterator/-/make-iterator-1.0.1.tgz"
    },
    "map-cache": {
      "version": "0.2.2",
      "from": "map-cache@>=0.2.2 <0.3.0",
      "resolved": "https://registry.npmjs.org/map-cache/-/map-cache-0.2.2.tgz"
    },
    "map-visit": {
      "version": "1.0.0",
      "from": "map-visit@>=1.0.0 <2.0.0",
      "resolved": "https://registry.npmjs.org/map-visit/-/map-visit-1.0.0.tgz"
    },
    "md5": {
      "version": "2.2.1",
      "from": "md5@>=2.2.1 <3.0.0",
      "resolved": "https://registry.npmjs.org/md5/-/md5-2.2.1.tgz"
    },
    "media-typer": {
      "version": "0.3.0",
      "from": "media-typer@0.3.0",
      "resolved": "https://registry.npmjs.org/media-typer/-/media-typer-0.3.0.tgz"
    },
    "merge-descriptors": {
      "version": "1.0.1",
      "from": "merge-descriptors@1.0.1",
      "resolved": "https://registry.npmjs.org/merge-descriptors/-/merge-descriptors-1.0.1.tgz"
    },
    "methods": {
      "version": "1.1.2",
      "from": "methods@>=1.1.2 <1.2.0",
      "resolved": "https://registry.npmjs.org/methods/-/methods-1.1.2.tgz"
    },
    "micromatch": {
      "version": "3.1.10",
      "from": "micromatch@>=3.0.4 <4.0.0",
      "resolved": "https://registry.npmjs.org/micromatch/-/micromatch-3.1.10.tgz"
    },
    "mime": {
      "version": "1.4.1",
      "from": "mime@1.4.1",
      "resolved": "https://registry.npmjs.org/mime/-/mime-1.4.1.tgz"
    },
    "mime-db": {
      "version": "1.35.0",
      "from": "mime-db@>=1.35.0 <1.36.0",
      "resolved": "https://registry.npmjs.org/mime-db/-/mime-db-1.35.0.tgz"
    },
    "mime-types": {
      "version": "2.1.19",
      "from": "mime-types@>=2.1.18 <2.2.0",
      "resolved": "https://registry.npmjs.org/mime-types/-/mime-types-2.1.19.tgz"
    },
    "minimist": {
      "version": "1.2.0",
      "from": "minimist@1.2.0",
      "resolved": "https://registry.npmjs.org/minimist/-/minimist-1.2.0.tgz"
    },
    "mixin-deep": {
      "version": "1.3.1",
      "from": "mixin-deep@>=1.2.0 <2.0.0",
      "resolved": "https://registry.npmjs.org/mixin-deep/-/mixin-deep-1.3.1.tgz",
      "dependencies": {
        "is-extendable": {
          "version": "1.0.1",
          "from": "is-extendable@>=1.0.1 <2.0.0",
          "resolved": "https://registry.npmjs.org/is-extendable/-/is-extendable-1.0.1.tgz"
        }
      }
    },
    "mkdirp": {
      "version": "0.5.1",
      "from": "mkdirp@>=0.5.1 <0.6.0",
      "resolved": "https://registry.npmjs.org/mkdirp/-/mkdirp-0.5.1.tgz",
      "dependencies": {
        "minimist": {
          "version": "0.0.8",
          "from": "minimist@0.0.8",
          "resolved": "https://registry.npmjs.org/minimist/-/minimist-0.0.8.tgz"
        }
      }
    },
    "ms": {
      "version": "2.0.0",
      "from": "ms@2.0.0",
      "resolved": "https://registry.npmjs.org/ms/-/ms-2.0.0.tgz"
    },
    "multer": {
      "version": "1.3.1",
      "from": "multer@latest",
      "resolved": "https://registry.npmjs.org/multer/-/multer-1.3.1.tgz",
      "dependencies": {
        "object-assign": {
          "version": "3.0.0",
          "from": "object-assign@>=3.0.0 <4.0.0",
          "resolved": "https://registry.npmjs.org/object-assign/-/object-assign-3.0.0.tgz"
        }
      }
    },
    "multer-s3": {
      "version": "2.7.0",
      "from": "multer-s3@latest",
      "resolved": "https://registry.npmjs.org/multer-s3/-/multer-s3-2.7.0.tgz"
    },
    "mysql": {
      "version": "2.16.0",
      "from": "mysql@latest",
      "resolved": "https://registry.npmjs.org/mysql/-/mysql-2.16.0.tgz",
      "dependencies": {
        "safe-buffer": {
          "version": "5.1.2",
          "from": "safe-buffer@5.1.2",
          "resolved": "https://registry.npmjs.org/safe-buffer/-/safe-buffer-5.1.2.tgz"
        }
      }
    },
    "nanomatch": {
      "version": "1.2.13",
      "from": "nanomatch@>=1.2.9 <2.0.0",
      "resolved": "https://registry.npmjs.org/nanomatch/-/nanomatch-1.2.13.tgz"
    },
    "negotiator": {
      "version": "0.6.1",
      "from": "negotiator@0.6.1",
      "resolved": "https://registry.npmjs.org/negotiator/-/negotiator-0.6.1.tgz"
    },
    "nodemailer": {
      "version": "4.6.7",
      "from": "nodemailer@latest",
      "resolved": "https://registry.npmjs.org/nodemailer/-/nodemailer-4.6.7.tgz"
    },
    "object-assign": {
      "version": "4.1.1",
      "from": "object-assign@>=4.0.0 <5.0.0",
      "resolved": "https://registry.npmjs.org/object-assign/-/object-assign-4.1.1.tgz"
    },
    "object-copy": {
      "version": "0.1.0",
      "from": "object-copy@>=0.1.0 <0.2.0",
      "resolved": "https://registry.npmjs.org/object-copy/-/object-copy-0.1.0.tgz",
      "dependencies": {
        "define-property": {
          "version": "0.2.5",
          "from": "define-property@>=0.2.5 <0.3.0",
          "resolved": "https://registry.npmjs.org/define-property/-/define-property-0.2.5.tgz"
        },
        "kind-of": {
          "version": "3.2.2",
          "from": "kind-of@>=3.0.3 <4.0.0",
          "resolved": "https://registry.npmjs.org/kind-of/-/kind-of-3.2.2.tgz"
        }
      }
    },
    "object-visit": {
      "version": "1.0.1",
      "from": "object-visit@>=1.0.0 <2.0.0",
      "resolved": "https://registry.npmjs.org/object-visit/-/object-visit-1.0.1.tgz"
    },
    "object.defaults": {
      "version": "1.1.0",
      "from": "object.defaults@>=1.1.0 <2.0.0",
      "resolved": "https://registry.npmjs.org/object.defaults/-/object.defaults-1.1.0.tgz"
    },
    "object.map": {
      "version": "1.0.1",
      "from": "object.map@>=1.0.0 <2.0.0",
      "resolved": "https://registry.npmjs.org/object.map/-/object.map-1.0.1.tgz"
    },
    "object.pick": {
      "version": "1.3.0",
      "from": "object.pick@>=1.3.0 <2.0.0",
      "resolved": "https://registry.npmjs.org/object.pick/-/object.pick-1.3.0.tgz"
    },
    "on-finished": {
      "version": "2.3.0",
      "from": "on-finished@>=2.3.0 <2.4.0",
      "resolved": "https://registry.npmjs.org/on-finished/-/on-finished-2.3.0.tgz"
    },
    "os-homedir": {
      "version": "1.0.2",
      "from": "os-homedir@>=1.0.0 <2.0.0",
      "resolved": "https://registry.npmjs.org/os-homedir/-/os-homedir-1.0.2.tgz"
    },
    "parse-filepath": {
      "version": "1.0.2",
      "from": "parse-filepath@>=1.0.1 <2.0.0",
      "resolved": "https://registry.npmjs.org/parse-filepath/-/parse-filepath-1.0.2.tgz"
    },
    "parse-passwd": {
      "version": "1.0.0",
      "from": "parse-passwd@>=1.0.0 <2.0.0",
      "resolved": "https://registry.npmjs.org/parse-passwd/-/parse-passwd-1.0.0.tgz"
    },
    "parseurl": {
      "version": "1.3.2",
      "from": "parseurl@>=1.3.2 <1.4.0",
      "resolved": "https://registry.npmjs.org/parseurl/-/parseurl-1.3.2.tgz"
    },
    "pascalcase": {
      "version": "0.1.1",
      "from": "pascalcase@>=0.1.1 <0.2.0",
      "resolved": "https://registry.npmjs.org/pascalcase/-/pascalcase-0.1.1.tgz"
    },
    "path-parse": {
      "version": "1.0.5",
      "from": "path-parse@>=1.0.5 <2.0.0",
      "resolved": "https://registry.npmjs.org/path-parse/-/path-parse-1.0.5.tgz"
    },
    "path-root": {
      "version": "0.1.1",
      "from": "path-root@>=0.1.1 <0.2.0",
      "resolved": "https://registry.npmjs.org/path-root/-/path-root-0.1.1.tgz"
    },
    "path-root-regex": {
      "version": "0.1.2",
      "from": "path-root-regex@>=0.1.0 <0.2.0",
      "resolved": "https://registry.npmjs.org/path-root-regex/-/path-root-regex-0.1.2.tgz"
    },
    "path-to-regexp": {
      "version": "0.1.7",
      "from": "path-to-regexp@0.1.7",
      "resolved": "https://registry.npmjs.org/path-to-regexp/-/path-to-regexp-0.1.7.tgz"
    },
    "pg-connection-string": {
      "version": "2.0.0",
      "from": "pg-connection-string@2.0.0",
      "resolved": "https://registry.npmjs.org/pg-connection-string/-/pg-connection-string-2.0.0.tgz"
    },
    "posix-character-classes": {
      "version": "0.1.1",
      "from": "posix-character-classes@>=0.1.0 <0.2.0",
      "resolved": "https://registry.npmjs.org/posix-character-classes/-/posix-character-classes-0.1.1.tgz"
    },
    "process-nextick-args": {
      "version": "2.0.0",
      "from": "process-nextick-args@>=2.0.0 <2.1.0",
      "resolved": "https://registry.npmjs.org/process-nextick-args/-/process-nextick-args-2.0.0.tgz"
    },
    "proxy-addr": {
      "version": "2.0.4",
      "from": "proxy-addr@>=2.0.2 <2.1.0",
      "resolved": "https://registry.npmjs.org/proxy-addr/-/proxy-addr-2.0.4.tgz"
    },
    "punycode": {
      "version": "1.3.2",
      "from": "punycode@1.3.2",
      "resolved": "https://registry.npmjs.org/punycode/-/punycode-1.3.2.tgz"
    },
    "qs": {
      "version": "6.5.2",
      "from": "qs@6.5.2",
      "resolved": "https://registry.npmjs.org/qs/-/qs-6.5.2.tgz"
    },
    "querystring": {
      "version": "0.2.0",
      "from": "querystring@0.2.0",
      "resolved": "https://registry.npmjs.org/querystring/-/querystring-0.2.0.tgz"
    },
    "range-parser": {
      "version": "1.2.0",
      "from": "range-parser@>=1.2.0 <1.3.0",
      "resolved": "https://registry.npmjs.org/range-parser/-/range-parser-1.2.0.tgz"
    },
    "raw-body": {
      "version": "2.3.3",
      "from": "raw-body@2.3.3",
      "resolved": "https://registry.npmjs.org/raw-body/-/raw-body-2.3.3.tgz"
    },
    "readable-stream": {
      "version": "2.3.6",
      "from": "readable-stream@2.3.6",
      "resolved": "https://registry.npmjs.org/readable-stream/-/readable-stream-2.3.6.tgz"
    },
    "rechoir": {
      "version": "0.6.2",
      "from": "rechoir@>=0.6.2 <0.7.0",
      "resolved": "https://registry.npmjs.org/rechoir/-/rechoir-0.6.2.tgz"
    },
    "regenerator-runtime": {
      "version": "0.11.1",
      "from": "regenerator-runtime@>=0.11.0 <0.12.0",
      "resolved": "https://registry.npmjs.org/regenerator-runtime/-/regenerator-runtime-0.11.1.tgz"
    },
    "regex-not": {
      "version": "1.0.2",
      "from": "regex-not@>=1.0.0 <2.0.0",
      "resolved": "https://registry.npmjs.org/regex-not/-/regex-not-1.0.2.tgz"
    },
    "repeat-element": {
      "version": "1.1.2",
      "from": "repeat-element@>=1.1.2 <2.0.0",
      "resolved": "https://registry.npmjs.org/repeat-element/-/repeat-element-1.1.2.tgz"
    },
    "repeat-string": {
      "version": "1.6.1",
      "from": "repeat-string@>=1.6.1 <2.0.0",
      "resolved": "https://registry.npmjs.org/repeat-string/-/repeat-string-1.6.1.tgz"
    },
    "resolve": {
      "version": "1.8.1",
      "from": "resolve@>=1.1.7 <2.0.0",
      "resolved": "https://registry.npmjs.org/resolve/-/resolve-1.8.1.tgz"
    },
    "resolve-dir": {
      "version": "1.0.1",
      "from": "resolve-dir@>=1.0.1 <2.0.0",
      "resolved": "https://registry.npmjs.org/resolve-dir/-/resolve-dir-1.0.1.tgz"
    },
    "resolve-url": {
      "version": "0.2.1",
      "from": "resolve-url@>=0.2.1 <0.3.0",
      "resolved": "https://registry.npmjs.org/resolve-url/-/resolve-url-0.2.1.tgz"
    },
    "ret": {
      "version": "0.1.15",
      "from": "ret@>=0.1.10 <0.2.0",
      "resolved": "https://registry.npmjs.org/ret/-/ret-0.1.15.tgz"
    },
    "run-parallel": {
      "version": "1.1.9",
      "from": "run-parallel@>=1.1.6 <2.0.0",
      "resolved": "https://registry.npmjs.org/run-parallel/-/run-parallel-1.1.9.tgz"
    },
    "safe-buffer": {
      "version": "5.1.1",
      "from": "safe-buffer@5.1.1",
      "resolved": "https://registry.npmjs.org/safe-buffer/-/safe-buffer-5.1.1.tgz"
    },
    "safe-regex": {
      "version": "1.1.0",
      "from": "safe-regex@>=1.1.0 <2.0.0",
      "resolved": "https://registry.npmjs.org/safe-regex/-/safe-regex-1.1.0.tgz"
    },
    "safer-buffer": {
      "version": "2.1.2",
      "from": "safer-buffer@>=2.1.2 <3.0.0",
      "resolved": "https://registry.npmjs.org/safer-buffer/-/safer-buffer-2.1.2.tgz"
    },
    "sax": {
      "version": "1.2.1",
      "from": "sax@1.2.1",
      "resolved": "https://registry.npmjs.org/sax/-/sax-1.2.1.tgz"
    },
    "send": {
      "version": "0.16.1",
      "from": "send@0.16.1",
      "resolved": "https://registry.npmjs.org/send/-/send-0.16.1.tgz",
      "dependencies": {
        "statuses": {
          "version": "1.3.1",
          "from": "statuses@>=1.3.1 <1.4.0",
          "resolved": "https://registry.npmjs.org/statuses/-/statuses-1.3.1.tgz"
        }
      }
    },
    "serve-static": {
      "version": "1.13.1",
      "from": "serve-static@1.13.1",
      "resolved": "https://registry.npmjs.org/serve-static/-/serve-static-1.13.1.tgz"
    },
    "set-value": {
      "version": "2.0.0",
      "from": "set-value@>=2.0.0 <3.0.0",
      "resolved": "https://registry.npmjs.org/set-value/-/set-value-2.0.0.tgz",
      "dependencies": {
        "extend-shallow": {
          "version": "2.0.1",
          "from": "extend-shallow@>=2.0.1 <3.0.0",
          "resolved": "https://registry.npmjs.org/extend-shallow/-/extend-shallow-2.0.1.tgz"
        }
      }
    },
    "setprototypeof": {
      "version": "1.1.0",
      "from": "setprototypeof@1.1.0",
      "resolved": "https://registry.npmjs.org/setprototypeof/-/setprototypeof-1.1.0.tgz"
    },
    "snapdragon": {
      "version": "0.8.2",
      "from": "snapdragon@>=0.8.1 <0.9.0",
      "resolved": "https://registry.npmjs.org/snapdragon/-/snapdragon-0.8.2.tgz",
      "dependencies": {
        "define-property": {
          "version": "0.2.5",
          "from": "define-property@>=0.2.5 <0.3.0",
          "resolved": "https://registry.npmjs.org/define-property/-/define-property-0.2.5.tgz"
        },
        "extend-shallow": {
          "version": "2.0.1",
          "from": "extend-shallow@>=2.0.1 <3.0.0",
          "resolved": "https://registry.npmjs.org/extend-shallow/-/extend-shallow-2.0.1.tgz"
        }
      }
    },
    "snapdragon-node": {
      "version": "2.1.1",
      "from": "snapdragon-node@>=2.0.1 <3.0.0",
      "resolved": "https://registry.npmjs.org/snapdragon-node/-/snapdragon-node-2.1.1.tgz",
      "dependencies": {
        "define-property": {
          "version": "1.0.0",
          "from": "define-property@>=1.0.0 <2.0.0",
          "resolved": "https://registry.npmjs.org/define-property/-/define-property-1.0.0.tgz"
        },
        "is-accessor-descriptor": {
          "version": "1.0.0",
          "from": "is-accessor-descriptor@>=1.0.0 <2.0.0",
          "resolved": "https://registry.npmjs.org/is-accessor-descriptor/-/is-accessor-descriptor-1.0.0.tgz"
        },
        "is-data-descriptor": {
          "version": "1.0.0",
          "from": "is-data-descriptor@>=1.0.0 <2.0.0",
          "resolved": "https://registry.npmjs.org/is-data-descriptor/-/is-data-descriptor-1.0.0.tgz"
        },
        "is-descriptor": {
          "version": "1.0.2",
          "from": "is-descriptor@>=1.0.0 <2.0.0",
          "resolved": "https://registry.npmjs.org/is-descriptor/-/is-descriptor-1.0.2.tgz"
        }
      }
    },
    "snapdragon-util": {
      "version": "3.0.1",
      "from": "snapdragon-util@>=3.0.1 <4.0.0",
      "resolved": "https://registry.npmjs.org/snapdragon-util/-/snapdragon-util-3.0.1.tgz",
      "dependencies": {
        "kind-of": {
          "version": "3.2.2",
          "from": "kind-of@>=3.2.0 <4.0.0",
          "resolved": "https://registry.npmjs.org/kind-of/-/kind-of-3.2.2.tgz"
        }
      }
    },
    "source-map": {
      "version": "0.5.7",
      "from": "source-map@>=0.5.6 <0.6.0",
      "resolved": "https://registry.npmjs.org/source-map/-/source-map-0.5.7.tgz"
    },
    "source-map-resolve": {
      "version": "0.5.2",
      "from": "source-map-resolve@>=0.5.0 <0.6.0",
      "resolved": "https://registry.npmjs.org/source-map-resolve/-/source-map-resolve-0.5.2.tgz"
    },
    "source-map-url": {
      "version": "0.4.0",
      "from": "source-map-url@>=0.4.0 <0.5.0",
      "resolved": "https://registry.npmjs.org/source-map-url/-/source-map-url-0.4.0.tgz"
    },
    "split-string": {
      "version": "3.1.0",
      "from": "split-string@>=3.0.2 <4.0.0",
      "resolved": "https://registry.npmjs.org/split-string/-/split-string-3.1.0.tgz"
    },
    "sqlstring": {
      "version": "2.3.1",
      "from": "sqlstring@2.3.1",
      "resolved": "https://registry.npmjs.org/sqlstring/-/sqlstring-2.3.1.tgz"
    },
    "static-extend": {
      "version": "0.1.2",
      "from": "static-extend@>=0.1.1 <0.2.0",
      "resolved": "https://registry.npmjs.org/static-extend/-/static-extend-0.1.2.tgz",
      "dependencies": {
        "define-property": {
          "version": "0.2.5",
          "from": "define-property@>=0.2.5 <0.3.0",
          "resolved": "https://registry.npmjs.org/define-property/-/define-property-0.2.5.tgz"
        }
      }
    },
    "statuses": {
      "version": "1.5.0",
      "from": "statuses@>=1.4.0 <2.0.0",
      "resolved": "https://registry.npmjs.org/statuses/-/statuses-1.5.0.tgz"
    },
    "streamifier": {
      "version": "0.1.1",
      "from": "streamifier@>=0.1.1 <0.2.0",
      "resolved": "https://registry.npmjs.org/streamifier/-/streamifier-0.1.1.tgz"
    },
    "streamsearch": {
      "version": "0.1.2",
      "from": "streamsearch@0.1.2",
      "resolved": "https://registry.npmjs.org/streamsearch/-/streamsearch-0.1.2.tgz"
    },
    "string_decoder": {
      "version": "1.1.1",
      "from": "string_decoder@>=1.1.1 <1.2.0",
      "resolved": "https://registry.npmjs.org/string_decoder/-/string_decoder-1.1.1.tgz"
    },
    "supports-color": {
      "version": "5.4.0",
      "from": "supports-color@>=5.3.0 <6.0.0",
      "resolved": "https://registry.npmjs.org/supports-color/-/supports-color-5.4.0.tgz"
    },
    "tarn": {
      "version": "1.1.4",
      "from": "tarn@>=1.1.4 <2.0.0",
      "resolved": "https://registry.npmjs.org/tarn/-/tarn-1.1.4.tgz"
    },
    "tildify": {
      "version": "1.2.0",
      "from": "tildify@1.2.0",
      "resolved": "https://registry.npmjs.org/tildify/-/tildify-1.2.0.tgz"
    },
    "to-object-path": {
      "version": "0.3.0",
      "from": "to-object-path@>=0.3.0 <0.4.0",
      "resolved": "https://registry.npmjs.org/to-object-path/-/to-object-path-0.3.0.tgz",
      "dependencies": {
        "kind-of": {
          "version": "3.2.2",
          "from": "kind-of@>=3.0.2 <4.0.0",
          "resolved": "https://registry.npmjs.org/kind-of/-/kind-of-3.2.2.tgz"
        }
      }
    },
    "to-regex": {
      "version": "3.0.2",
      "from": "to-regex@>=3.0.2 <4.0.0",
      "resolved": "https://registry.npmjs.org/to-regex/-/to-regex-3.0.2.tgz"
    },
    "to-regex-range": {
      "version": "2.1.1",
      "from": "to-regex-range@>=2.1.0 <3.0.0",
      "resolved": "https://registry.npmjs.org/to-regex-range/-/to-regex-range-2.1.1.tgz"
    },
    "type-is": {
      "version": "1.6.16",
      "from": "type-is@>=1.6.16 <1.7.0",
      "resolved": "https://registry.npmjs.org/type-is/-/type-is-1.6.16.tgz"
    },
    "typedarray": {
      "version": "0.0.6",
      "from": "typedarray@>=0.0.6 <0.0.7",
      "resolved": "https://registry.npmjs.org/typedarray/-/typedarray-0.0.6.tgz"
    },
    "unc-path-regex": {
      "version": "0.1.2",
      "from": "unc-path-regex@>=0.1.2 <0.2.0",
      "resolved": "https://registry.npmjs.org/unc-path-regex/-/unc-path-regex-0.1.2.tgz"
    },
    "union-value": {
      "version": "1.0.0",
      "from": "union-value@>=1.0.0 <2.0.0",
      "resolved": "https://registry.npmjs.org/union-value/-/union-value-1.0.0.tgz",
      "dependencies": {
        "extend-shallow": {
          "version": "2.0.1",
          "from": "extend-shallow@>=2.0.1 <3.0.0",
          "resolved": "https://registry.npmjs.org/extend-shallow/-/extend-shallow-2.0.1.tgz"
        },
        "set-value": {
          "version": "0.4.3",
          "from": "set-value@>=0.4.3 <0.5.0",
          "resolved": "https://registry.npmjs.org/set-value/-/set-value-0.4.3.tgz"
        }
      }
    },
    "unpipe": {
      "version": "1.0.0",
      "from": "unpipe@1.0.0",
      "resolved": "https://registry.npmjs.org/unpipe/-/unpipe-1.0.0.tgz"
    },
    "unset-value": {
      "version": "1.0.0",
      "from": "unset-value@>=1.0.0 <2.0.0",
      "resolved": "https://registry.npmjs.org/unset-value/-/unset-value-1.0.0.tgz",
      "dependencies": {
        "has-value": {
          "version": "0.3.1",
          "from": "has-value@>=0.3.1 <0.4.0",
          "resolved": "https://registry.npmjs.org/has-value/-/has-value-0.3.1.tgz",
          "dependencies": {
            "isobject": {
              "version": "2.1.0",
              "from": "isobject@>=2.0.0 <3.0.0",
              "resolved": "https://registry.npmjs.org/isobject/-/isobject-2.1.0.tgz"
            }
          }
        },
        "has-values": {
          "version": "0.1.4",
          "from": "has-values@>=0.1.4 <0.2.0",
          "resolved": "https://registry.npmjs.org/has-values/-/has-values-0.1.4.tgz"
        }
      }
    },
    "urix": {
      "version": "0.1.0",
      "from": "urix@>=0.1.0 <0.2.0",
      "resolved": "https://registry.npmjs.org/urix/-/urix-0.1.0.tgz"
    },
    "url": {
      "version": "0.10.3",
      "from": "url@0.10.3",
      "resolved": "https://registry.npmjs.org/url/-/url-0.10.3.tgz"
    },
    "use": {
      "version": "3.1.1",
      "from": "use@>=3.1.0 <4.0.0",
      "resolved": "https://registry.npmjs.org/use/-/use-3.1.1.tgz"
    },
    "util-deprecate": {
      "version": "1.0.2",
      "from": "util-deprecate@>=1.0.1 <1.1.0",
      "resolved": "https://registry.npmjs.org/util-deprecate/-/util-deprecate-1.0.2.tgz"
    },
    "utils-merge": {
      "version": "1.0.1",
      "from": "utils-merge@1.0.1",
      "resolved": "https://registry.npmjs.org/utils-merge/-/utils-merge-1.0.1.tgz"
    },
    "uuid": {
      "version": "3.3.2",
      "from": "uuid@>=3.3.2 <4.0.0",
      "resolved": "https://registry.npmjs.org/uuid/-/uuid-3.3.2.tgz"
    },
    "v8flags": {
      "version": "3.1.1",
      "from": "v8flags@>=3.1.1 <4.0.0",
      "resolved": "https://registry.npmjs.org/v8flags/-/v8flags-3.1.1.tgz"
    },
    "vary": {
      "version": "1.1.2",
      "from": "vary@>=1.1.2 <1.2.0",
      "resolved": "https://registry.npmjs.org/vary/-/vary-1.1.2.tgz"
    },
    "which": {
      "version": "1.3.1",
      "from": "which@>=1.2.14 <2.0.0",
      "resolved": "https://registry.npmjs.org/which/-/which-1.3.1.tgz"
    },
    "xml2js": {
      "version": "0.4.19",
      "from": "xml2js@0.4.19",
      "resolved": "https://registry.npmjs.org/xml2js/-/xml2js-0.4.19.tgz"
    },
    "xmlbuilder": {
      "version": "9.0.7",
      "from": "xmlbuilder@>=9.0.1 <9.1.0",
      "resolved": "https://registry.npmjs.org/xmlbuilder/-/xmlbuilder-9.0.7.tgz"
    },
    "xtend": {
      "version": "4.0.1",
      "from": "xtend@>=4.0.0 <5.0.0",
      "resolved": "https://registry.npmjs.org/xtend/-/xtend-4.0.1.tgz"
    }
  }
}
